Fast Fuzzy String Joins for Data Frames • fuzzystring
…
# Load misspellings dataset
data(misspellings)
misspellings
#> # A tibble: 4,505 × 2
#>    misspelling correct   
#>    <chr>       <chr>     
#>  1 abandonned  abandoned 
#>  2 aberation   aberration
#>  3 abilties    abilities 
#>  4 abilty      ability   
#>  5 abondon     abandon   
#>  6 abbout      about     
#>  7 abotu       about     
#>  8 abouta      about a   
#>  9 aboutit     about it  
#> 10 aboutthe    about the 
#> # ℹ 4,495 more rows

Let’s match these against a real dictionary:

# Dictionary from qdapDictionaries package
library(qdapDictionaries)
words <- dplyr::as_tibble(DICTIONARY)
words
#> # A tibble: 20,137 × 2
#>    word  syllables
#>    <chr>     <dbl>
#>  1 hm            1
#>  2 hmm           1
#>  3 hmmm          1
#>  4 hmph          1
#>  5 mmhmm         2
#>  6 mmhm          2
#>  7 mm            1
#>  8 mmm           1
#>  9 mmmm          1
#> 10 pff           1
#> # ℹ 20,127 more rows
…
